{
    "results": [{
        "vote_count": 1364,
        "id": 424694,
        "video": false,
        "vote_average": 8.2,
        "title": "Bohemian Rhapsody",
        "popularity": 158.986,
        "poster_path": "\/lHu1wtNaczFPGFDTrjCSzeLPTKN.jpg",
        "original_language": "en",
        "original_title": "Bohemian Rhapsody",
        "genre_ids": [18, 10402],
        "backdrop_path": "\/pbXgLEYh8rlG2Km5IGZPnhcnuSz.jpg",
        "adult": false,
        "overview": "Singer Freddie Mercury, guitarist Brian May, drummer Roger Taylor and bass guitarist John Deacon take the music world by storm when they form the rock 'n' roll band Queen in 1970. Hit songs become instant classics. When Mercury's increasingly wild lifestyle starts to spiral out of control, Queen soon faces its greatest challenge yet – finding a way to keep the band together amid the success and excess.",
        "release_date": "2018-10-24"
    }, {
        "vote_count": 159,
        "id": 360920,
        "video": false,
        "vote_average": 6.2,
        "title": "The Grinch",
        "popularity": 137.09,
        "poster_path": "\/rWQVj6Z8kPdsbt7XPjVBCltxq90.jpg",
        "original_language": "en",
        "original_title": "The Grinch",
        "genre_ids": [16, 10751, 35, 14],
        "backdrop_path": "\/zRDkmww7Bu11wiz2g86RxSreiY4.jpg",
        "adult": false,
        "overview": "The Grinch hatches a scheme to ruin Christmas when the residents of Whoville plan their annual holiday celebration.",
        "release_date": "2018-11-08"
    }, {
        "vote_count": 60,
        "id": 404368,
        "video": false,
        "vote_average": 7.6,
        "title": "Ralph Breaks the Internet",
        "popularity": 135.777,
        "poster_path": "\/m110vLaDDOCca4hfOcS5mK5cDke.jpg",
        "original_language": "en",
        "original_title": "Ralph Breaks the Internet",
        "genre_ids": [10751, 16],
        "backdrop_path": "\/ivhK1NjnFji6lD5dkAThSzd3Mgq.jpg",
        "adult": false,
        "overview": "Taking place six years following the events of the first film, the story will center on Ralph's adventures in the Internet data space when a Wi-Fi router gets plugged into the arcade as he must find a replacement part to fix Sugar Rush.",
        "release_date": "2018-11-20"
    }, {
        "vote_count": 154,
        "id": 458594,
        "video": false,
        "vote_average": 6.5,
        "title": "Peppermint",
        "popularity": 100.379,
        "poster_path": "\/jrzxS0vcbzIIay1sdYm0rgI2QfJ.jpg",
        "original_language": "en",
        "original_title": "Peppermint",
        "genre_ids": [28, 53, 18],
        "backdrop_path": "\/14HPHJnNUVAdbYKnG46WnBh4OD6.jpg",
        "adult": false,
        "overview": "A grieving mother transforms herself into a vigilante following the murders of her husband and daughter, eluding the authorities to deliver her own personal brand of justice.",
        "release_date": "2018-09-06"
    }, {
        "vote_count": 1831,
        "id": 332562,
        "video": false,
        "vote_average": 7.4,
        "title": "A Star Is Born",
        "popularity": 82.666,
        "poster_path": "\/wrFpXMNBRj2PBiN4Z5kix51XaIZ.jpg",
        "original_language": "en",
        "original_title": "A Star Is Born",
        "genre_ids": [18, 10402, 10749],
        "backdrop_path": "\/840rbblaLc4SVxm8gF3DNdJ0YAE.jpg",
        "adult": false,
        "overview": "Seasoned musician Jackson Maine discovers—and falls in love with—struggling artist Ally. She has just about given up on her dream to make it big as a singer—until Jack coaxes her into the spotlight. But even as Ally's career takes off, the personal side of their relationship is breaking down, as Jack fights an ongoing battle with his own internal demons.",
        "release_date": "2018-10-03"
    }, {
        "vote_count": 238,
        "id": 454293,
        "video": false,
        "vote_average": 6.3,
        "title": "Night School",
        "popularity": 82.284,
        "poster_path": "\/1NSMAaBPSbWv7sGmF8oLGMNb8Qm.jpg",
        "original_language": "en",
        "original_title": "Night School",
        "genre_ids": [35],
        "backdrop_path": "\/jJBimY3DXIaIaL4NeGHfR0U0rSh.jpg",
        "adult": false,
        "overview": "Teddy Walker is a successful salesman whose life takes an unexpected turn when he accidentally blows up his place of employment. Forced to attend night school to get his GED, Teddy soon finds himself dealing with a group of misfit students, his former high school nemesis and a feisty teacher who doesn't think he's too bright.",
        "release_date": "2018-09-27"
    }, {
        "vote_count": 114,
        "id": 446807,
        "video": false,
        "vote_average": 5.2,
        "title": "The Girl in the Spider's Web",
        "popularity": 80.907,
        "poster_path": "\/w4ibr8R702DCjwYniry1D1XwQXj.jpg",
        "original_language": "en",
        "original_title": "The Girl in the Spider's Web",
        "genre_ids": [18, 53, 9648, 80, 28],
        "backdrop_path": "\/zYZeoInDyCziwCD8psOaryL8ntR.jpg",
        "adult": false,
        "overview": "Lisbeth Salander and Mikael Blomkvist find themselves caught in a web of spies, cyber-criminals and corrupt government officials - both in Sweden and in the United States - whom are only known as The Spider Society.",
        "release_date": "2018-10-26"
    }, {
        "vote_count": 281,
        "id": 463821,
        "video": false,
        "vote_average": 6.4,
        "title": "The House with a Clock in Its Walls",
        "popularity": 79.127,
        "poster_path": "\/qM66Hv4ByAxnilr0jaqCA9uOD4Y.jpg",
        "original_language": "en",
        "original_title": "The House with a Clock in Its Walls",
        "genre_ids": [27, 14, 53, 10751, 9648],
        "backdrop_path": "\/meyZ0ZZLLNaKIrvbmVpuXzZ11sD.jpg",
        "adult": false,
        "overview": "Ten-year-old Lewis goes to live with his uncle in a creaky old house that contains a mysterious ticktock noise. When Lewis accidentally awakens the dead, the town's sleepy facade magically springs to life with a secret world of witches and warlocks.",
        "release_date": "2018-09-15"
    }, {
        "vote_count": 51,
        "id": 375588,
        "video": false,
        "vote_average": 6.7,
        "title": "Robin Hood",
        "popularity": 68.355,
        "poster_path": "\/AiRfixFcfTkNbn2A73qVJPlpkUo.jpg",
        "original_language": "en",
        "original_title": "Robin Hood",
        "genre_ids": [12, 28],
        "backdrop_path": "\/AuA50D7T7S7OEVcGo0ZKaMhERn0.jpg",
        "adult": false,
        "overview": "A war-hardened Crusader and his Moorish commander mount an audacious revolt against the corrupt English crown.",
        "release_date": "2018-09-01"
    }, {
        "vote_count": 600,
        "id": 399360,
        "video": false,
        "vote_average": 5.5,
        "title": "Alpha",
        "popularity": 62.481,
        "poster_path": "\/afdZAIcAQscziqVtsEoh2PwsYTW.jpg",
        "original_language": "en",
        "original_title": "Alpha",
        "genre_ids": [12, 18],
        "backdrop_path": "\/hBkPmNA04BYggZQqzzvVEBVnj9m.jpg",
        "adult": false,
        "overview": "In the prehistoric past, Keda, a young and inexperienced hunter, struggles to return home after being separated from his tribe when bison hunting goes awry. On his way back he will find an unexpected ally.",
        "release_date": "2018-08-17"
    }, {
        "vote_count": 102,
        "id": 399402,
        "video": false,
        "vote_average": 6.1,
        "title": "Hunter Killer",
        "popularity": 55.695,
        "poster_path": "\/t7ZpEIxMnxaljIeor3XB1PUX4lm.jpg",
        "original_language": "en",
        "original_title": "Hunter Killer",
        "genre_ids": [28, 53],
        "backdrop_path": "\/gCIB3DdK00DyfwosVGf7pnFFdK3.jpg",
        "adult": false,
        "overview": "An untested American submarine captain teams with U.S. Navy Seals to rescue the Russian president, who has been kidnapped by a rogue general.",
        "release_date": "2018-10-19"
    }, {
        "vote_count": 50,
        "id": 480530,
        "video": false,
        "vote_average": 7.3,
        "title": "Creed II",
        "popularity": 44.157,
        "poster_path": "\/v3QyboWRoA4O9RbcsqH8tJMe8EB.jpg",
        "original_language": "en",
        "original_title": "Creed II",
        "genre_ids": [18, 28],
        "backdrop_path": "\/6JHYYbvoSuQ95ceGx8Oeg8zzAjg.jpg",
        "adult": false,
        "overview": "Follows Adonis Creed's life inside and outside of the ring as he deals with new found fame, issues with his family, and his continuing quest to become a champion.",
        "release_date": "2018-11-20"
    }, {
        "vote_count": 111,
        "id": 401469,
        "video": false,
        "vote_average": 6.6,
        "title": "Widows",
        "popularity": 40.546,
        "poster_path": "\/f27RTnWEc2bhVtfSlKmxxypznfR.jpg",
        "original_language": "en",
        "original_title": "Widows",
        "genre_ids": [80, 18, 53],
        "backdrop_path": "\/Cf0DNn5QwoHnuaHVIDu4DgIFNo.jpg",
        "adult": false,
        "overview": "A police shootout leaves four thieves dead during an explosive armed robbery attempt in Chicago. Their widows have nothing in common except a debt left behind by their spouses' criminal activities. Hoping to forge a future on their own terms, they join forces to pull off a heist.",
        "release_date": "2018-11-06"
    }, {
        "vote_count": 270,
        "id": 426543,
        "video": false,
        "vote_average": 6.2,
        "title": "The Nutcracker and the Four Realms",
        "popularity": 35.737,
        "poster_path": "\/aRD1vLU7k5NHO0HThfHrjEQwWRz.jpg",
        "original_language": "en",
        "original_title": "The Nutcracker and the Four Realms",
        "genre_ids": [14, 12, 10751],
        "backdrop_path": "\/l2ji4YiNSPBV69WjGBgU0gCvRqy.jpg",
        "adult": false,
        "overview": "A young girl is transported into a magical world of gingerbread soldiers and an army of mice.",
        "release_date": "2018-10-26"
    }, {
        "vote_count": 169,
        "id": 438590,
        "video": false,
        "vote_average": 5.4,
        "title": "A-X-L",
        "popularity": 30.452,
        "poster_path": "\/9kB56ZdMB6RgY5QtX9Bar45jCeI.jpg",
        "original_language": "en",
        "original_title": "A-X-L",
        "genre_ids": [878, 28, 12, 10751],
        "backdrop_path": "\/l1nYo0yzKjf84atnBDbx0do16vQ.jpg",
        "adult": false,
        "overview": "The life of a teenage boy is forever altered by a chance encounter with cutting edge military technology.",
        "release_date": "2018-08-16"
    }, {
        "vote_count": 1,
        "id": 297802,
        "video": false,
        "vote_average": 0,
        "title": "Aquaman",
        "popularity": 26.399,
        "poster_path": "\/i2dF9UxOeb77CAJrOflj0RpqJRF.jpg",
        "original_language": "en",
        "original_title": "Aquaman",
        "genre_ids": [28, 14, 878, 12, 10749],
        "backdrop_path": "\/5A2bMlLfJrAfX9bqAibOL2gCruF.jpg",
        "adult": false,
        "overview": "The film reveals the origin story of half-human, half-Atlantean Arthur Curry and takes him on the journey of his lifetime—one that will not only force him to face who he really is, but to discover if he is worthy of who he was born to be… a king.",
        "release_date": "2018-12-12"
    }, {
        "vote_count": 6817,
        "id": 424,
        "video": false,
        "vote_average": 8.5,
        "title": "Schindler's List",
        "popularity": 26.029,
        "poster_path": "\/yPisjyLweCl1tbgwgtzBCNCBle.jpg",
        "original_language": "en",
        "original_title": "Schindler's List",
        "genre_ids": [18, 36, 10752],
        "backdrop_path": "\/cTNYRUTXkBgPH3wP3kmPUB5U6dA.jpg",
        "adult": false,
        "overview": "The true story of how businessman Oskar Schindler saved over a thousand Jewish lives from the Nazis while they worked as slaves in his factory during World War II.",
        "release_date": "1993-12-15"
    }, {
        "vote_count": 1470,
        "id": 493922,
        "video": false,
        "vote_average": 6.9,
        "title": "Hereditary",
        "popularity": 25.625,
        "poster_path": "\/lHV8HHlhwNup2VbpiACtlKzaGIQ.jpg",
        "original_language": "en",
        "original_title": "Hereditary",
        "genre_ids": [27, 18, 9648, 53],
        "backdrop_path": "\/yVWiOMpzf7gullGvug83r7gMdha.jpg",
        "adult": false,
        "overview": "When Ellen, the matriarch of the Graham family, passes away, her daughter’s family begins to unravel cryptic and increasingly terrifying secrets about their ancestry.",
        "release_date": "2018-06-04"
    }, {
        "vote_count": 40,
        "id": 429476,
        "video": false,
        "vote_average": 5.5,
        "title": "Hell Fest",
        "popularity": 23.888,
        "poster_path": "\/4tjyPwIqeYzho7fHWqBKIn2gyWg.jpg",
        "original_language": "en",
        "original_title": "Hell Fest",
        "genre_ids": [27],
        "backdrop_path": "\/orfMBe5LbJG7pySD1dxHbLOHJ9r.jpg",
        "adult": false,
        "overview": "On Halloween night at a horror theme park, a costumed killer begins slaying innocent patrons who believe that it's all part of the festivities.",
        "release_date": "2018-09-27"
    }, {
        "vote_count": 163,
        "id": 424781,
        "video": false,
        "vote_average": 7,
        "title": "Sorry to Bother You",
        "popularity": 21.849,
        "poster_path": "\/peTl1V04E9ppvhgvNmSX0r2ALqO.jpg",
        "original_language": "en",
        "original_title": "Sorry to Bother You",
        "genre_ids": [14, 878, 35],
        "backdrop_path": "\/lHecBdFRnW2hh8Qn3wz0vrPIqw2.jpg",
        "adult": false,
        "overview": "In an alternate present-day version of Oakland, black telemarketer Cassius Green discovers a magical key to professional success – which propels him into a macabre universe.",
        "release_date": "2018-07-06"
    }],
    "page": 1,
    "total_results": 360,
    "dates": {
        "maximum": "2018-12-21",
        "minimum": "2018-11-26"
    },
    "total_pages": 18
}
